module devnewton.fr/gb3

go 1.19

require (
	github.com/PuerkitoBio/goquery v1.9.2
	github.com/hackebrot/turtle v0.2.0
	golang.org/x/text v0.14.0
)

require (
	github.com/andybalholm/cascadia v1.3.2 // indirect
	golang.org/x/net v0.24.0 // indirect
)
